\relax 
\@writefile{lof}{\contentsline {figure}{\numberline {1}{\ignorespaces Example of a Barnes-Hut Quadtree\relax }}{2}}
\providecommand*\caption@xref[2]{\@setref\relax\@undefined{#1}}
\newlabel{fig:quad}{{1}{2}}
\@writefile{lof}{\contentsline {figure}{\numberline {2}{\ignorespaces Results of the various methods\relax }}{4}}
\newlabel{fig:results}{{2}{4}}
